GoogleCapstoneMarkdown
…
## Warning: package 'ggpubr' was built under R version 4.1.3

Importing the data

daily_activity <- read.csv('C:/Users/Dillon/Documents/Coding Learning/Google Data Analytics Course/Google Data Analytics Capstone Complete a Case Study/Data/Fitabase Data 3.12.16-4.11.16/dailyActivity_merged.csv')

sleepday <- read.csv('C:/Users/Dillon/Documents/Coding Learning/Google Data Analytics Course/Google Data Analytics Capstone Complete a Case Study/Data/Fitabase Data 3.12.16-4.11.16/SleepDay_merged.csv')

Taking a look at the data;

tbl_day_act <- as_tibble(daily_activity)
tbl_day_act

## # A tibble: 940 x 15
##        Id ActivityDate TotalSteps TotalDistance TrackerDistance LoggedActivitie~
##     <dbl> <chr>             <int>         <dbl>           <dbl>            <dbl>
##  1 1.50e9 4/12/2016         13162          8.5             8.5                 0
##  2 1.50e9 4/13/2016         10735          6.97            6.97                0
##  3 1.50e9 4/14/2016         10460          6.74            6.74                0
##  4 1.50e9 4/15/2016          9762          6.28            6.28                0
##  5 1.50e9 4/16/2016         12669          8.16            8.16                0
##  6 1.50e9 4/17/2016          9705          6.48            6.48                0
##  7 1.50e9 4/18/2016         13019          8.59            8.59                0
##  8 1.50e9 4/19/2016         15506          9.88            9.88                0
##  9 1.50e9 4/20/2016         10544          6.68            6.68                0
## 10 1.50e9 4/21/2016          9819          6.34            6.34                0
## # ... with 930 more rows, and 9 more variables: VeryActiveDistance <dbl>,
## #   ModeratelyActiveDistance <dbl>, LightActiveDistance <dbl>,
## #   SedentaryActiveDistance <dbl>, VeryActiveMinutes <int>,
## #   FairlyActiveMinutes <int>, LightlyActiveMinutes <int>,
## #   SedentaryMinutes <int>, Calories <int>

tbl_sleep <- as_tibble(sleepday)
tbl_sleep

## # A tibble: 413 x 5
##            Id SleepDay          TotalSleepRecor~ TotalMinutesAsl~ TotalTimeInBed
##         <dbl> <chr>                        <int>            <int>          <int>
##  1 1503960366 4/12/2016 12:00:~                1              327            346
##  2 1503960366 4/13/2016 12:00:~                2              384            407
##  3 1503960366 4/15/2016 12:00:~                1              412            442
##  4 1503960366 4/16/2016 12:00:~                2              340            367
##  5 1503960366 4/17/2016 12:00:~                1              700            712
##  6 1503960366 4/19/2016 12:00:~                1              304            320
##  7 1503960366 4/20/2016 12:00:~                1              360            377
##  8 1503960366 4/21/2016 12:00:~                1              325            364
##  9 1503960366 4/23/2016 12:00:~                1              361            384
## 10 1503960366 4/24/2016 12:00:~                1              430            449
## # ... with 403 more rows
…
Calculating the number of unique dates in the daily activity
table The data source stated that the data was collected
between the 12th of April and the 12th of May. If the end date is
included there should be 31 distinct dates. Creating a table of amount
of days logged by each person(number of distinct dates for each ID)

n_distinct(tbl_day_act$Date)

## [1] 31

#number of distinct dates for each ID
data_days <- as_tibble(count_(unique(tbl_day_act), vars = 'ID'))
data_days

## # A tibble: 33 x 2
##    ID             n
##    <chr>      <int>
##  1 1503960366    31
##  2 1624580081    31
##  3 1644430081    30
##  4 1844505072    31
##  5 1927972279    31
##  6 2022484408    31
##  7 2026352035    31
##  8 2320127002    31
##  9 2347167796    18
## 10 2873212765    31
## # ... with 23 more rows
…
